\BOOKMARK [0][-]{chapter.1}{LaTeX入門}{}% 1
\BOOKMARK [1][-]{section.1.1}{LaTeX基本知識}{chapter.1}% 2
\BOOKMARK [2][-]{subsection.1.1.1}{LaTeX歷史和特點}{section.1.1}% 3
\BOOKMARK [1][-]{section.1.2}{安裝與設置}{chapter.1}% 4
\BOOKMARK [1][-]{section.1.3}{編輯和編譯}{chapter.1}% 5
\BOOKMARK [2][-]{subsection.1.3.1}{在TeXWorks中編寫LaTeX檔}{section.1.3}% 6
\BOOKMARK [2][-]{subsection.1.3.2}{在WinEdt中編寫LaTeX檔}{section.1.3}% 7
\BOOKMARK [2][-]{subsection.1.3.3}{用命令列編譯}{section.1.3}% 8
\BOOKMARK [2][-]{subsection.1.3.4}{編譯為HTML}{section.1.3}% 9
\BOOKMARK [1][-]{section.1.4}{LaTeX原始檔案}{chapter.1}% 10
\BOOKMARK [2][-]{subsection.1.4.1}{LaTeX輸入檔}{section.1.4}% 11
\BOOKMARK [2][-]{subsection.1.4.2}{特殊字元}{section.1.4}% 12
\BOOKMARK [2][-]{subsection.1.4.3}{LaTeX命令}{section.1.4}% 13
\BOOKMARK [2][-]{subsection.1.4.4}{輸入檔的結構}{section.1.4}% 14
\BOOKMARK [1][-]{section.1.5}{CTeX LaTeX 原始檔案示例}{chapter.1}% 15
\BOOKMARK [1][-]{section.1.6}{一般文本排版}{chapter.1}% 16
\BOOKMARK [2][-]{subsection.1.6.1}{段落}{section.1.6}% 17
\BOOKMARK [2][-]{subsection.1.6.2}{標題、章節}{section.1.6}% 18
\BOOKMARK [2][-]{subsection.1.6.3}{環境}{section.1.6}% 19
\BOOKMARK [2][-]{subsection.1.6.4}{製錶環境tabular}{section.1.6}% 20
\BOOKMARK [2][-]{subsection.1.6.5}{浮動環境}{section.1.6}% 21
\BOOKMARK [1][-]{section.1.7}{數學公式入門}{chapter.1}% 22
