40023143	楊登麟
40023207	傅彥綺
40123101	王若庭
40123102	吳佳潔
40123103	周于婷
40123104	林宣吟
40123105	林詩容
40123106	張絲語
40123107	陳于加
40123108	陳怡樺
40123109	黃芯庭
40123110	劉翼瑄
40123111	鄭妍希
40123112	賴湘焄
40123113	王若嘉
40123114	王瑞豪
40123116	吳羽閔
40123117	吳昱緯
40123118	吳謦麟
40123119	呂冠緯
40123120	李念融
40123121	李啟揚
40123122	林子航
40123123	林育民
40123124	林家弘
40123125	林登峰
40123126	柯嘉洋
40123127	洪宗佑
40123128	胡瀚中
40123129	高永城
40123130	康庭瑋
40123131	張凱傑
40123132	曹鈞凱
40123133	梁智皓
40123134	莊凱翔
40123135	陳俊安
40123136	陳建成
40123137	陳家暐
40123138	陳靖之
40123139	賀廣明
40123141	黃柏良
40123142	楊佳致
40123143	楊鎮豪
40123144	鄒萬興
40123145	廖宗浩
40123146	廖振弦
40123148	蔡宗霖
40123149	蔡東維
40123150	蔡朝仁
40123151	鄭羽
40123153	戴志軒
40123154	謝正利
40123155	鍾宇翔
40123156	羅冠霖
40123157	盧毅民
40123158	蔡宗霖
49823207	賴思綺
